Projecto/simulation/qsim/CRC16_polynomial_sol.msim.vcd
$comment
	File created using the following command:
		vcd file CRC16_polynomial_sol.msim.vcd -direction
$end
$date
	Mon Nov 20 22:04:58 2017
$end
$version
	ModelSim Version 10.5b
$end
$timescale
	1ps
$end

$scope module crc16_polynomial_sol_vhd_vec_tst $end
$var wire 1 ! a [15] $end
$var wire 1 " a [14] $end
$var wire 1 # a [13] $end
$var wire 1 $ a [12] $end
$var wire 1 % a [11] $end
$var wire 1 & a [10] $end
$var wire 1 ' a [9] $end
$var wire 1 ( a [8] $end
$var wire 1 ) a [7] $end
$var wire 1 * a [6] $end
$var wire 1 + a [5] $end
$var wire 1 , a [4] $end
$var wire 1 - a [3] $end
$var wire 1 . a [2] $end
$var wire 1 / a [1] $end
$var wire 1 0 a [0] $end
$var wire 1 1 error $end
$var wire 1 2 r [7] $end
$var wire 1 3 r [6] $end
$var wire 1 4 r [5] $end
$var wire 1 5 r [4] $end
$var wire 1 6 r [3] $end
$var wire 1 7 r [2] $end
$var wire 1 8 r [1] $end
$var wire 1 9 r [0] $end

$scope module i1 $end
$var wire 1 : gnd $end
$var wire 1 ; vcc $end
$var wire 1 < unknown $end
$var wire 1 = devoe $end
$var wire 1 > devclrn $end
$var wire 1 ? devpor $end
$var wire 1 @ ww_devoe $end
$var wire 1 A ww_devclrn $end
$var wire 1 B ww_devpor $end
$var wire 1 C ww_a [15] $end
$var wire 1 D ww_a [14] $end
$var wire 1 E ww_a [13] $end
$var wire 1 F ww_a [12] $end
$var wire 1 G ww_a [11] $end
$var wire 1 H ww_a [10] $end
$var wire 1 I ww_a [9] $end
$var wire 1 J ww_a [8] $end
$var wire 1 K ww_a [7] $end
$var wire 1 L ww_a [6] $end
$var wire 1 M ww_a [5] $end
$var wire 1 N ww_a [4] $end
$var wire 1 O ww_a [3] $end
$var wire 1 P ww_a [2] $end
$var wire 1 Q ww_a [1] $end
$var wire 1 R ww_a [0] $end
$var wire 1 S ww_r [7] $end
$var wire 1 T ww_r [6] $end
$var wire 1 U ww_r [5] $end
$var wire 1 V ww_r [4] $end
$var wire 1 W ww_r [3] $end
$var wire 1 X ww_r [2] $end
$var wire 1 Y ww_r [1] $end
$var wire 1 Z ww_r [0] $end
$var wire 1 [ ww_error $end
$var wire 1 \ \r[0]~output_o\ $end
$var wire 1 ] \r[1]~output_o\ $end
$var wire 1 ^ \r[2]~output_o\ $end
$var wire 1 _ \r[3]~output_o\ $end
$var wire 1 ` \r[4]~output_o\ $end
$var wire 1 a \r[5]~output_o\ $end
$var wire 1 b \r[6]~output_o\ $end
$var wire 1 c \r[7]~output_o\ $end
$var wire 1 d \error~output_o\ $end
$var wire 1 e \a[13]~input_o\ $end
$var wire 1 f \a[3]~input_o\ $end
$var wire 1 g \a[0]~input_o\ $end
$var wire 1 h \a[1]~input_o\ $end
$var wire 1 i \encoder|r[0]~1_combout\ $end
$var wire 1 j \a[6]~input_o\ $end
$var wire 1 k \a[15]~input_o\ $end
$var wire 1 l \a[14]~input_o\ $end
$var wire 1 m \a[7]~input_o\ $end
$var wire 1 n \a[8]~input_o\ $end
$var wire 1 o \encoder|r[1]~0_combout\ $end
$var wire 1 p \a[2]~input_o\ $end
$var wire 1 q \a[9]~input_o\ $end
$var wire 1 r \a[4]~input_o\ $end
$var wire 1 s \encoder|r[1]~2_combout\ $end
$var wire 1 t \a[5]~input_o\ $end
$var wire 1 u \encoder|r[2]~4_combout\ $end
$var wire 1 v \encoder|r[2]~3_combout\ $end
$var wire 1 w \a[10]~input_o\ $end
$var wire 1 x \encoder|r[2]~5_combout\ $end
$var wire 1 y \encoder|r[5]~6_combout\ $end
$var wire 1 z \a[11]~input_o\ $end
$var wire 1 { \encoder|r[3]~7_combout\ $end
$var wire 1 | \a[12]~input_o\ $end
$var wire 1 } \encoder|r[6]~8_combout\ $end
$var wire 1 ~ \encoder|r[4]~9_combout\ $end
$var wire 1 !! \encoder|r[7]~10_combout\ $end
$var wire 1 "! \encoder|r[7]~11_combout\ $end
$var wire 1 #! \encoder|r\ [7] $end
$var wire 1 $! \encoder|r\ [6] $end
$var wire 1 %! \encoder|r\ [5] $end
$var wire 1 &! \encoder|r\ [4] $end
$var wire 1 '! \encoder|r\ [3] $end
$var wire 1 (! \encoder|r\ [2] $end
$var wire 1 )! \encoder|r\ [1] $end
$var wire 1 *! \encoder|r\ [0] $end
$upscope $end
$upscope $end
$enddefinitions $end
#0
$dumpvars
01
0:
1;
x<
1=
1>
1?
1@
1A
1B
0[
0\
0]
0^
0_
0`
0a
0b
0c
0d
0e
0f
0g
0h
0i
0j
0k
0l
0m
0n
0o
0p
0q
0r
0s
0t
0u
0v
0w
0x
0y
0z
0{
0|
0}
0~
0!!
0"!
0!
0"
0#
0$
0%
0&
0'
0(
0)
0*
0+
0,
0-
0.
0/
00
0C
0D
0E
0F
0G
0H
0I
0J
0K
0L
0M
0N
0O
0P
0Q
0R
0S
0T
0U
0V
0W
0X
0Y
0Z
0#!
0$!
0%!
x&!
x'!
x(!
0)!
0*!
02
03
04
05
06
07
08
09
$end
#40000
10
1R
1g
1i
1u
1}
1"!
1#!
1~
1$!
1x
1*!
1\
1^
1b
1`
1c
1Z
1X
1T
1V
1S
19
17
15
13
12
#80000
1/
1Q
1h
0i
1s
0u
1y
0}
0~
0$!
1{
1%!
0x
1)!
0*!
0\
1]
0^
1a
1_
0b
0`
0Z
1Y
0X
1U
1W
0T
0V
09
18
07
16
05
14
03
#120000
1.
1P
1p
0s
1u
0y
1}
0"!
0#!
1~
1$!
0{
0%!
1x
0)!
0]
1^
0a
0_
1b
1`
0c
0Y
1X
0U
0W
1T
1V
0S
08
17
06
15
04
13
02
#160000
1-
1O
1f
1i
1y
1{
1%!
1*!
1\
1a
1_
1Z
1U
1W
19
16
14
#200000
1,
1N
1r
1s
0}
0~
0$!
1)!
1]
0b
0`
1Y
0T
0V
18
05
03
#240000
1+
1M
1t
0u
1!!
0%!
1#!
0x
0^
1c
0a
0X
1S
0U
07
04
12
#280000
1*
1L
1j
0*!
1v
0{
1"!
0#!
1x
1~
0_
0\
0W
0Z
1`
1^
0c
09
06
1V
1X
0S
17
15
02
#320000
1)
1K
1m
1o
0x
0!!
1$!
1%!
1#!
1*!
0)!
1{
1b
0^
1T
0X
1_
0]
1\
1c
1a
07
13
1W
0Y
1Z
1S
1U
19
08
16
14
12
#360000
1(
1J
1n
0o
0*!
1)!
0{
0_
1]
0\
0W
1Y
0Z
09
18
06
#400000
1'
1I
1q
0s
0v
1x
0~
0)!
0]
0`
1^
0Y
0V
1X
08
17
05
#440000
1&
1H
1w
0x
0y
1{
0%!
0^
0X
0a
1_
07
0U
1W
16
04
#480000
1%
1G
1z
0{
1~
0$!
0b
1`
0_
0T
1V
0W
06
15
03
#520000
1$
1F
1|
0~
1%!
0#!
0c
1a
0`
0S
1U
0V
05
14
02
#560000
1#
1E
1e
0i
1v
0%!
1#!
1x
1~
1*!
1c
0a
1S
0U
1\
1`
1^
04
12
1Z
1V
1X
19
17
15
#600000
1"
1D
1l
1o
0v
1!!
1%!
0#!
0x
0~
0*!
1)!
1{
1_
1]
0\
0`
0^
0c
1a
1W
1Y
0Z
0V
0X
0S
1U
09
18
07
16
05
14
02
#640000
1!
1C
1k
0o
0!!
0%!
1#!
1*!
0)!
0{
0_
0]
1\
1c
0a
0W
0Y
1Z
1S
0U
19
08
06
04
12
#680000
0!
0"
0#
0$
0%
0&
0'
0(
0)
0*
0+
0,
0-
0.
0/
00
0R
0Q
0P
0O
0N
0M
0L
0K
0J
0I
0H
0G
0F
0E
0D
0C
0k
0l
0e
0|
0z
0w
0q
0n
0m
0j
0t
0r
0f
0p
0h
0g
0*!
0"!
0#!
0\
0Z
0c
09
0S
02
