Projecto/simulation/qsim/CRC16_polynomial_sol.msim.vcd
$comment
	File created using the following command:
		vcd file CRC16_polynomial_sol.msim.vcd -direction
$end
$date
	Thu Nov 16 20:52:09 2017
$end
$version
	ModelSim Version 10.5b
$end
$timescale
	1ps
$end

$scope module crc16_polynomial_sol_vhd_vec_tst $end
$var wire 1 ! a [15] $end
$var wire 1 " a [14] $end
$var wire 1 # a [13] $end
$var wire 1 $ a [12] $end
$var wire 1 % a [11] $end
$var wire 1 & a [10] $end
$var wire 1 ' a [9] $end
$var wire 1 ( a [8] $end
$var wire 1 ) a [7] $end
$var wire 1 * a [6] $end
$var wire 1 + a [5] $end
$var wire 1 , a [4] $end
$var wire 1 - a [3] $end
$var wire 1 . a [2] $end
$var wire 1 / a [1] $end
$var wire 1 0 a [0] $end
$var wire 1 1 r [7] $end
$var wire 1 2 r [6] $end
$var wire 1 3 r [5] $end
$var wire 1 4 r [4] $end
$var wire 1 5 r [3] $end
$var wire 1 6 r [2] $end
$var wire 1 7 r [1] $end
$var wire 1 8 r [0] $end

$scope module i1 $end
$var wire 1 9 gnd $end
$var wire 1 : vcc $end
$var wire 1 ; unknown $end
$var wire 1 < devoe $end
$var wire 1 = devclrn $end
$var wire 1 > devpor $end
$var wire 1 ? ww_devoe $end
$var wire 1 @ ww_devclrn $end
$var wire 1 A ww_devpor $end
$var wire 1 B ww_a [15] $end
$var wire 1 C ww_a [14] $end
$var wire 1 D ww_a [13] $end
$var wire 1 E ww_a [12] $end
$var wire 1 F ww_a [11] $end
$var wire 1 G ww_a [10] $end
$var wire 1 H ww_a [9] $end
$var wire 1 I ww_a [8] $end
$var wire 1 J ww_a [7] $end
$var wire 1 K ww_a [6] $end
$var wire 1 L ww_a [5] $end
$var wire 1 M ww_a [4] $end
$var wire 1 N ww_a [3] $end
$var wire 1 O ww_a [2] $end
$var wire 1 P ww_a [1] $end
$var wire 1 Q ww_a [0] $end
$var wire 1 R ww_r [7] $end
$var wire 1 S ww_r [6] $end
$var wire 1 T ww_r [5] $end
$var wire 1 U ww_r [4] $end
$var wire 1 V ww_r [3] $end
$var wire 1 W ww_r [2] $end
$var wire 1 X ww_r [1] $end
$var wire 1 Y ww_r [0] $end
$var wire 1 Z \r[0]~output_o\ $end
$var wire 1 [ \r[1]~output_o\ $end
$var wire 1 \ \r[2]~output_o\ $end
$var wire 1 ] \r[3]~output_o\ $end
$var wire 1 ^ \r[4]~output_o\ $end
$var wire 1 _ \r[5]~output_o\ $end
$var wire 1 ` \r[6]~output_o\ $end
$var wire 1 a \r[7]~output_o\ $end
$var wire 1 b \a[3]~input_o\ $end
$var wire 1 c \a[14]~input_o\ $end
$var wire 1 d \a[7]~input_o\ $end
$var wire 1 e \a[1]~input_o\ $end
$var wire 1 f \a[0]~input_o\ $end
$var wire 1 g \a[13]~input_o\ $end
$var wire 1 h \a[6]~input_o\ $end
$var wire 1 i \CRC16_divider|r[0]~0_combout\ $end
$var wire 1 j \a[2]~input_o\ $end
$var wire 1 k \a[15]~input_o\ $end
$var wire 1 l \CRC16_divider|r[6]~1_combout\ $end
$var wire 1 m \a[4]~input_o\ $end
$var wire 1 n \a[5]~input_o\ $end
$var wire 1 o \CRC16_divider|r[5]~2_combout\ $end
$var wire 1 p \CRC16_divider|r~3_combout\ $end
$var wire 1 q \CRC16_divider|r[2]~4_combout\ $end
$var wire 1 r \a[8]~input_o\ $end
$var wire 1 s \CRC16_divider|r~5_combout\ $end
$var wire 1 t \a[9]~input_o\ $end
$var wire 1 u \CRC16_divider|r~6_combout\ $end
$var wire 1 v \CRC16_divider|r[7]~7_combout\ $end
$var wire 1 w \CRC16_divider|r[4]~8_combout\ $end
$var wire 1 x \a[10]~input_o\ $end
$var wire 1 y \a[11]~input_o\ $end
$var wire 1 z \CRC16_divider|r[6]~9_combout\ $end
$var wire 1 { \a[12]~input_o\ $end
$var wire 1 | \CRC16_divider|r[7]~10_combout\ $end
$var wire 1 } \CRC16_divider|r\ [7] $end
$var wire 1 ~ \CRC16_divider|r\ [6] $end
$var wire 1 !! \CRC16_divider|r\ [5] $end
$var wire 1 "! \CRC16_divider|r\ [4] $end
$var wire 1 #! \CRC16_divider|r\ [3] $end
$var wire 1 $! \CRC16_divider|r\ [2] $end
$var wire 1 %! \CRC16_divider|r\ [1] $end
$var wire 1 &! \CRC16_divider|r\ [0] $end
$upscope $end
$upscope $end
$enddefinitions $end
#0
$dumpvars
09
1:
x;
1<
1=
1>
1?
1@
1A
0Z
0[
0\
0]
0^
0_
0`
0a
0b
0c
0d
0e
0f
0g
0h
0i
0j
0k
0l
0m
0n
0o
0p
0q
0r
0s
0t
0u
0v
0w
0x
0y
0z
0{
0|
0!
0"
0#
0$
0%
0&
0'
0(
0)
0*
0+
0,
0-
0.
0/
00
0B
0C
0D
0E
0F
0G
0H
0I
0J
0K
0L
0M
0N
0O
0P
0Q
0R
0S
0T
0U
0V
0W
0X
0Y
0}
x~
0!!
x"!
0#!
x$!
0%!
0&!
01
02
03
04
05
06
07
08
$end
#40000
10
1Q
1f
1i
1p
1u
1}
1w
1z
1q
1&!
1a
1R
1Z
1\
1`
1^
11
1Y
1W
1S
1U
18
16
14
12
#80000
1/
1P
1e
0i
1%!
0p
1s
0u
0w
0z
1#!
1!!
0q
0&!
1[
1X
0Z
0\
1_
1]
0`
0^
17
0Y
0W
1T
1V
0S
0U
08
06
15
04
13
02
#120000
1.
1O
1j
0%!
1p
0s
1u
1|
0}
1w
1z
0#!
0!!
1q
0[
0X
1\
0_
0]
1`
1^
0a
07
1W
0T
0V
1S
1U
0R
16
05
14
03
12
01
#160000
1-
1N
1b
1&!
1s
1#!
1!!
1Z
1Y
1_
1]
18
1T
1V
15
13
#200000
1,
1M
1m
1%!
0u
0w
0z
1[
1X
0`
0^
17
0S
0U
04
02
#240000
1+
1L
1n
1o
0|
1}
0q
0!!
0_
0\
1a
0T
0W
1R
06
03
11
#280000
1*
1K
1h
1i
1q
0#!
1v
1w
0}
0&!
0]
1\
0V
1W
0Z
0a
1^
16
05
0Y
0R
1U
08
14
01
#320000
1)
1J
1d
1&!
1l
0o
1|
1}
0q
1!!
0%!
1#!
1z
1Z
1Y
1`
1]
0[
1_
0\
1a
18
1S
1V
0X
1T
0W
1R
07
06
15
13
12
11
#360000
1(
1I
1r
0#!
0]
0V
05
#400000
1'
1H
1t
0w
0^
0U
04
#440000
1&
1G
1x
0!!
0_
0T
03
#480000
1%
1F
1y
0z
0`
0S
02
#520000
1$
1E
1{
0|
0}
0a
0R
01
#560000
1#
1D
1g
0i
1q
0v
1z
1w
1}
0&!
1`
1\
1S
1W
0Z
1a
1^
16
12
0Y
1R
1U
08
14
11
#600000
1"
1C
1c
1&!
0l
1o
0w
0q
1!!
1%!
1#!
0z
0^
1Z
0U
1Y
0`
1]
1[
1_
0\
18
04
0S
1V
1X
1T
0W
17
06
15
13
02
#640000
1!
1B
1k
1l
0o
1v
1w
0}
1q
0!!
0%!
0#!
1z
1`
0]
0[
0_
1\
0a
1^
1S
0V
0X
0T
1W
0R
1U
07
16
05
14
03
12
01
#680000
0!
0"
0#
0$
0%
0&
0'
0(
0)
0*
0+
0,
0-
0.
0/
00
0Q
0P
0O
0N
0M
0L
0K
0J
0I
0H
0G
0F
0E
0D
0C
0B
0k
0c
0g
0{
0y
0x
0t
0r
0d
0h
0n
0m
0b
0j
0e
0f
1}
0p
0s
1%!
1!!
0&!
0l
0v
0w
0}
0%!
0z
0!!
0q
0Z
1_
1[
1a
0Y
1T
1X
1R
0\
0_
0`
0[
0a
0^
08
17
13
11
0W
0T
0S
0X
0R
0U
07
06
04
03
02
01
