Projecto/simulation/qsim/CRC16_polynomial_sol.msim.vcd
$comment
	File created using the following command:
		vcd file CRC16_polynomial_sol.msim.vcd -direction
$end
$date
	Thu Nov 23 22:10:35 2017
$end
$version
	ModelSim Version 10.5b
$end
$timescale
	1ps
$end

$scope module crc16_polynomial_sol_vhd_vec_tst $end
$var wire 1 ! a [15] $end
$var wire 1 " a [14] $end
$var wire 1 # a [13] $end
$var wire 1 $ a [12] $end
$var wire 1 % a [11] $end
$var wire 1 & a [10] $end
$var wire 1 ' a [9] $end
$var wire 1 ( a [8] $end
$var wire 1 ) a [7] $end
$var wire 1 * a [6] $end
$var wire 1 + a [5] $end
$var wire 1 , a [4] $end
$var wire 1 - a [3] $end
$var wire 1 . a [2] $end
$var wire 1 / a [1] $end
$var wire 1 0 a [0] $end
$var wire 1 1 error $end
$var wire 1 2 r [7] $end
$var wire 1 3 r [6] $end
$var wire 1 4 r [5] $end
$var wire 1 5 r [4] $end
$var wire 1 6 r [3] $end
$var wire 1 7 r [2] $end
$var wire 1 8 r [1] $end
$var wire 1 9 r [0] $end

$scope module i1 $end
$var wire 1 : gnd $end
$var wire 1 ; vcc $end
$var wire 1 < unknown $end
$var wire 1 = devoe $end
$var wire 1 > devclrn $end
$var wire 1 ? devpor $end
$var wire 1 @ ww_devoe $end
$var wire 1 A ww_devclrn $end
$var wire 1 B ww_devpor $end
$var wire 1 C ww_a [15] $end
$var wire 1 D ww_a [14] $end
$var wire 1 E ww_a [13] $end
$var wire 1 F ww_a [12] $end
$var wire 1 G ww_a [11] $end
$var wire 1 H ww_a [10] $end
$var wire 1 I ww_a [9] $end
$var wire 1 J ww_a [8] $end
$var wire 1 K ww_a [7] $end
$var wire 1 L ww_a [6] $end
$var wire 1 M ww_a [5] $end
$var wire 1 N ww_a [4] $end
$var wire 1 O ww_a [3] $end
$var wire 1 P ww_a [2] $end
$var wire 1 Q ww_a [1] $end
$var wire 1 R ww_a [0] $end
$var wire 1 S ww_r [7] $end
$var wire 1 T ww_r [6] $end
$var wire 1 U ww_r [5] $end
$var wire 1 V ww_r [4] $end
$var wire 1 W ww_r [3] $end
$var wire 1 X ww_r [2] $end
$var wire 1 Y ww_r [1] $end
$var wire 1 Z ww_r [0] $end
$var wire 1 [ ww_error $end
$var wire 1 \ \r[0]~output_o\ $end
$var wire 1 ] \r[1]~output_o\ $end
$var wire 1 ^ \r[2]~output_o\ $end
$var wire 1 _ \r[3]~output_o\ $end
$var wire 1 ` \r[4]~output_o\ $end
$var wire 1 a \r[5]~output_o\ $end
$var wire 1 b \r[6]~output_o\ $end
$var wire 1 c \r[7]~output_o\ $end
$var wire 1 d \error~output_o\ $end
$var wire 1 e \a[7]~input_o\ $end
$var wire 1 f \a[14]~input_o\ $end
$var wire 1 g \a[13]~input_o\ $end
$var wire 1 h \a[1]~input_o\ $end
$var wire 1 i \a[0]~input_o\ $end
$var wire 1 j \encoder|s_X_8_21_X_9_22~combout\ $end
$var wire 1 k \a[3]~input_o\ $end
$var wire 1 l \a[6]~input_o\ $end
$var wire 1 m \a[8]~input_o\ $end
$var wire 1 n \a[15]~input_o\ $end
$var wire 1 o \encoder|r[0]~0_combout\ $end
$var wire 1 p \encoder|r[0]~1_combout\ $end
$var wire 1 q \a[9]~input_o\ $end
$var wire 1 r \a[4]~input_o\ $end
$var wire 1 s \a[2]~input_o\ $end
$var wire 1 t \encoder|s_X_10_15_X_9_22~combout\ $end
$var wire 1 u \encoder|s_X_16_23_X_10_15_X_9_22~combout\ $end
$var wire 1 v \a[10]~input_o\ $end
$var wire 1 w \a[5]~input_o\ $end
$var wire 1 x \encoder|r[2]~2_combout\ $end
$var wire 1 y \encoder|r[2]~3_combout\ $end
$var wire 1 z \a[11]~input_o\ $end
$var wire 1 { \encoder|s_X_11_18~combout\ $end
$var wire 1 | \a[12]~input_o\ $end
$var wire 1 } \encoder|r[4]~4_combout\ $end
$var wire 1 ~ \encoder|r[4]~5_combout\ $end
$var wire 1 !! \encoder|r[7]~6_combout\ $end
$var wire 1 "! \encoder|r[5]~7_combout\ $end
$var wire 1 #! \encoder|r[6]~8_combout\ $end
$var wire 1 $! \encoder|r[7]~9_combout\ $end
$var wire 1 %! \encoder|r[7]~10_combout\ $end
$var wire 1 &! \encoder|r\ [7] $end
$var wire 1 '! \encoder|r\ [6] $end
$var wire 1 (! \encoder|r\ [5] $end
$var wire 1 )! \encoder|r\ [4] $end
$var wire 1 *! \encoder|r\ [3] $end
$var wire 1 +! \encoder|r\ [2] $end
$var wire 1 ,! \encoder|r\ [1] $end
$var wire 1 -! \encoder|r\ [0] $end
$upscope $end
$upscope $end
$enddefinitions $end
#0
$dumpvars
01
0:
1;
x<
1=
1>
1?
1@
1A
1B
0[
0\
0]
0^
0_
0`
0a
0b
0c
0d
0e
0f
0g
0h
0i
0j
0k
0l
0m
0n
0o
0p
0q
0r
0s
0t
0u
0v
0w
0x
0y
0z
0{
0|
0}
0~
0!!
0"!
0#!
0$!
0%!
0!
0"
0#
0$
0%
0&
0'
0(
0)
0*
0+
0,
0-
0.
0/
00
0C
0D
0E
0F
0G
0H
0I
0J
0K
0L
0M
0N
0O
0P
0Q
0R
0S
0T
0U
0V
0W
0X
0Y
0Z
x&!
0'!
x(!
x)!
0*!
x+!
0,!
x-!
02
03
04
05
06
07
08
09
$end
#40000
10
1R
1i
1j
1x
1'!
1$!
1%!
1y
1p
1~
1b
1T
1`
1\
1^
1c
13
1V
1Z
1X
1S
19
17
15
12
#80000
1/
1Q
1h
0j
1t
0'!
1u
0y
1"!
0p
0~
1,!
1*!
0b
0T
0`
0\
1a
0^
03
0V
0Z
1U
0X
1_
1]
09
07
05
14
1W
1Y
18
16
#120000
1.
1P
1s
0t
1~
1#!
0$!
0%!
1'!
0u
1y
0"!
0,!
0*!
1`
1V
0a
1^
1b
0c
15
0U
1X
1T
0S
0_
0]
17
04
13
02
0W
0Y
08
06
#160000
1-
1O
1k
1o
1{
1*!
1"!
1p
1\
1a
1_
1Z
1U
1W
19
16
14
#200000
1,
1N
1r
1,!
1}
0#!
0'!
0~
1]
1Y
0`
0b
18
0V
0T
05
03
#240000
1+
1M
1w
0y
1!!
0"!
1%!
0^
0X
1c
0a
07
1S
0U
04
12
#280000
1*
1L
1l
0o
0x
0*!
0}
0%!
1~
1y
0p
0c
0_
0S
0W
0\
1^
1`
06
02
0Z
1X
1V
09
17
15
#320000
1)
1K
1e
1p
1t
1#!
1$!
1%!
1'!
1u
0y
1"!
0,!
1*!
1\
1Z
1a
0^
1b
1c
19
1U
0X
1T
1S
1_
0]
07
14
13
12
1W
0Y
08
16
#360000
1(
1J
1m
1o
0u
1,!
0*!
0p
0\
0_
1]
0Z
0W
1Y
09
18
06
#400000
1'
1I
1q
0,!
1x
1}
0~
1y
0]
0Y
1^
0`
08
1X
0V
17
05
#440000
1&
1H
1v
0y
0{
1*!
0"!
0^
0X
0a
1_
07
0U
1W
16
04
#480000
1%
1G
1z
0*!
0}
0#!
0'!
1~
0_
0W
1`
0b
06
1V
0T
15
03
#520000
1$
1F
1|
0~
0!!
1"!
0%!
0`
0V
0c
1a
05
0S
1U
14
02
#560000
1#
1E
1g
1j
0x
0"!
0$!
1%!
1y
1p
1~
0a
0U
1`
1\
1^
1c
04
1V
1Z
1X
1S
19
17
15
12
#600000
1"
1D
1f
0j
0t
0%!
1u
0y
1"!
0p
0~
1,!
1*!
0c
0S
0`
0\
1a
0^
02
0V
0Z
1U
0X
1_
1]
09
07
05
14
1W
1Y
18
16
#640000
1!
1C
1n
0o
0u
1!!
0"!
1%!
0,!
0*!
1p
1\
0_
0]
1c
0a
1Z
0W
0Y
1S
0U
19
08
06
04
12
#680000
0!
0"
0#
0$
0%
0&
0'
0(
0)
0*
0+
0,
0-
0.
0/
00
0R
0Q
0P
0O
0N
0M
0L
0K
0J
0I
0H
0G
0F
0E
0D
0C
0n
0f
0g
0|
0z
0v
0q
0m
0e
0l
0w
0r
0k
0s
0h
0i
0p
1"!
0!!
0"!
0%!
1a
0\
1U
0Z
0c
0a
09
14
0S
0U
04
02
