Projecto/simulation/qsim/CRC16_polynomial_sol.msim.vcd
$comment
	File created using the following command:
		vcd file CRC16_polynomial_sol.msim.vcd -direction
$end
$date
	Tue Nov 21 04:04:27 2017
$end
$version
	ModelSim Version 10.5b
$end
$timescale
	1ps
$end

$scope module crc16_polynomial_sol_vhd_vec_tst $end
$var wire 1 ! a [15] $end
$var wire 1 " a [14] $end
$var wire 1 # a [13] $end
$var wire 1 $ a [12] $end
$var wire 1 % a [11] $end
$var wire 1 & a [10] $end
$var wire 1 ' a [9] $end
$var wire 1 ( a [8] $end
$var wire 1 ) a [7] $end
$var wire 1 * a [6] $end
$var wire 1 + a [5] $end
$var wire 1 , a [4] $end
$var wire 1 - a [3] $end
$var wire 1 . a [2] $end
$var wire 1 / a [1] $end
$var wire 1 0 a [0] $end
$var wire 1 1 error $end
$var wire 1 2 r [7] $end
$var wire 1 3 r [6] $end
$var wire 1 4 r [5] $end
$var wire 1 5 r [4] $end
$var wire 1 6 r [3] $end
$var wire 1 7 r [2] $end
$var wire 1 8 r [1] $end
$var wire 1 9 r [0] $end

$scope module i1 $end
$var wire 1 : gnd $end
$var wire 1 ; vcc $end
$var wire 1 < unknown $end
$var wire 1 = devoe $end
$var wire 1 > devclrn $end
$var wire 1 ? devpor $end
$var wire 1 @ ww_devoe $end
$var wire 1 A ww_devclrn $end
$var wire 1 B ww_devpor $end
$var wire 1 C ww_a [15] $end
$var wire 1 D ww_a [14] $end
$var wire 1 E ww_a [13] $end
$var wire 1 F ww_a [12] $end
$var wire 1 G ww_a [11] $end
$var wire 1 H ww_a [10] $end
$var wire 1 I ww_a [9] $end
$var wire 1 J ww_a [8] $end
$var wire 1 K ww_a [7] $end
$var wire 1 L ww_a [6] $end
$var wire 1 M ww_a [5] $end
$var wire 1 N ww_a [4] $end
$var wire 1 O ww_a [3] $end
$var wire 1 P ww_a [2] $end
$var wire 1 Q ww_a [1] $end
$var wire 1 R ww_a [0] $end
$var wire 1 S ww_r [7] $end
$var wire 1 T ww_r [6] $end
$var wire 1 U ww_r [5] $end
$var wire 1 V ww_r [4] $end
$var wire 1 W ww_r [3] $end
$var wire 1 X ww_r [2] $end
$var wire 1 Y ww_r [1] $end
$var wire 1 Z ww_r [0] $end
$var wire 1 [ ww_error $end
$var wire 1 \ \r[0]~output_o\ $end
$var wire 1 ] \r[1]~output_o\ $end
$var wire 1 ^ \r[2]~output_o\ $end
$var wire 1 _ \r[3]~output_o\ $end
$var wire 1 ` \r[4]~output_o\ $end
$var wire 1 a \r[5]~output_o\ $end
$var wire 1 b \r[6]~output_o\ $end
$var wire 1 c \r[7]~output_o\ $end
$var wire 1 d \error~output_o\ $end
$var wire 1 e \a[13]~input_o\ $end
$var wire 1 f \a[0]~input_o\ $end
$var wire 1 g \a[6]~input_o\ $end
$var wire 1 h \encoder|r[0]~3_combout\ $end
$var wire 1 i \a[15]~input_o\ $end
$var wire 1 j \a[14]~input_o\ $end
$var wire 1 k \a[8]~input_o\ $end
$var wire 1 l \a[1]~input_o\ $end
$var wire 1 m \encoder|r[3]~2_combout\ $end
$var wire 1 n \a[7]~input_o\ $end
$var wire 1 o \a[3]~input_o\ $end
$var wire 1 p \encoder|r[0]~4_combout\ $end
$var wire 1 q \a[9]~input_o\ $end
$var wire 1 r \a[4]~input_o\ $end
$var wire 1 s \a[2]~input_o\ $end
$var wire 1 t \encoder|s_X_10_15~combout\ $end
$var wire 1 u \a[5]~input_o\ $end
$var wire 1 v \a[10]~input_o\ $end
$var wire 1 w \encoder|r[2]~5_combout\ $end
$var wire 1 x \a[11]~input_o\ $end
$var wire 1 y \encoder|r[3]~6_combout\ $end
$var wire 1 z \a[12]~input_o\ $end
$var wire 1 { \encoder|s_X_12_19~combout\ $end
$var wire 1 | \encoder|r[5]~8_combout\ $end
$var wire 1 } \encoder|r[5]~7_combout\ $end
$var wire 1 ~ \encoder|r[5]~9_combout\ $end
$var wire 1 !! \encoder|r\ [7] $end
$var wire 1 "! \encoder|r\ [6] $end
$var wire 1 #! \encoder|r\ [5] $end
$var wire 1 $! \encoder|r\ [4] $end
$var wire 1 %! \encoder|r\ [3] $end
$var wire 1 &! \encoder|r\ [2] $end
$var wire 1 '! \encoder|r\ [1] $end
$var wire 1 (! \encoder|r\ [0] $end
$upscope $end
$upscope $end
$enddefinitions $end
#0
$dumpvars
01
0:
1;
x<
1=
1>
1?
1@
1A
1B
0[
0\
0]
0^
0_
0`
0a
0b
0c
0d
xe
xf
xg
xh
xi
xj
xk
xl
xm
xn
xo
xp
xq
xr
xs
xt
xu
xv
xw
xx
xy
xz
x{
x|
x}
x~
0!
0"
0#
0$
0%
0&
0'
0(
0)
0*
0+
0,
0-
0.
0/
00
0C
0D
0E
0F
0G
0H
0I
0J
0K
0L
0M
0N
0O
0P
0Q
0R
0S
0T
0U
0V
0W
0X
0Y
0Z
x!!
x"!
x#!
x$!
x%!
x&!
x'!
x(!
02
03
04
05
06
07
08
09
$end
#759
0e
0g
0i
0l
0n
0o
0u
#761
0f
0j
0k
0q
0r
0s
0v
0x
0z
#3478
x_
xW
x6
#3712
xa
xU
x4
#3839
x^
xX
x7
#3880
x]
xY
x8
#3914
x\
xZ
x9
#3926
xb
xT
x3
#3947
x`
xV
x5
#4390
0{
#4424
0|
#4425
0m
#4599
0h
#4649
0y
#4715
0t
#5074
0'!
#5134
xc
xS
x2
#5243
0p
#5244
0w
#5272
0%!
#5374
0}
#5377
0"!
#5581
0&!
#5706
0~
#5880
0$!
#6010
0!!
#8733
0_
0W
06
#8921
0]
0Y
08
#9126
0\
0Z
09
#9286
0b
0T
03
#9386
0^
0X
07
#9387
0a
0U
04
#9774
0`
0V
05
#11206
0c
0S
02
#40000
10
1R
#40596
1f
#44140
1"!
#44141
1h
#44463
1!!
#44730
1p
#44731
1w
#45047
1&!
#45324
1$!
#48053
1b
1T
13
#48616
1\
1Z
19
#48886
1^
1X
17
#49271
1`
1V
15
#49597
1c
1S
12
#80000
1/
1Q
#80594
1l
#83949
0w
#83952
0"!
#83961
1m
#83962
1|
#84283
1%!
#84286
0&!
#84380
1~
#84557
0p
#84559
1'!
#84585
0$!
#87749
1_
1W
16
#87861
0b
0T
03
#88091
0^
0X
07
#88092
1a
1U
14
#88439
1]
1Y
18
#88440
0\
0Z
09
#88479
0`
0V
05
#120000
1.
1P
#120596
1s
#124262
1t
#124282
1$!
#124287
0%!
#124581
0'!
#124860
1}
#124862
1"!
#124863
1&!
#125162
0~
#125448
0!!
#127748
0_
0W
06
#128229
1`
1V
15
#128428
0]
0Y
08
#128702
1^
1X
17
#128775
1b
1T
13
#128843
0a
0U
04
#130644
0c
0S
02
#160000
1-
1O
#160594
1o
#163896
1p
#164166
1y
#164171
0|
#164622
1~
#164750
1%!
#167782
1\
1Z
19
#168216
1_
1W
16
#168334
1a
1U
14
#200000
1,
1N
#200596
1r
#203773
1{
1'!
#204079
0$!
#204364
0"!
#207653
1]
1Y
18
#207973
0`
0V
05
#208273
0b
0T
03
#240000
1+
1M
#240594
1u
#244018
0&!
#244019
0}
#244351
0~
#244650
1!!
#247823
0^
0X
07
#248032
0a
0U
04
#249784
1c
1S
12
#280000
1*
1L
#280594
1g
#283923
0y
#283924
0h
#284271
0!!
#284546
0%!
#284564
1w
#284568
0p
#284880
1&!
#285157
1$!
#288007
0_
0W
06
#288451
0\
0Z
09
#288719
1^
1X
17
#289104
1`
1V
15
#289467
0c
0S
02
#320000
1)
1K
#320594
1n
#323832
1%!
0t
#323833
1p
#324191
0'!
#324486
1}
#324489
1"!
#324495
0&!
#324798
1~
#325069
1!!
#327298
1_
1W
16
#327719
1\
1Z
19
#328038
0]
0Y
08
#328300
0^
0X
07
#328402
1b
1T
13
#328510
1a
1U
14
#330203
1c
1S
12
#360000
1(
1J
#360596
1k
#363892
0m
#364235
0%!
#364534
1'!
0p
#367696
0_
0W
06
#368414
1]
1Y
18
#368417
0\
0Z
09
#400000
1'
1I
#400596
1q
#401516
0w
#401686
0'!
#401863
1&!
#402152
0$!
#405533
0]
0Y
08
#405702
1^
1X
17
#406046
0`
0V
05
#440000
1&
1H
#440596
1v
#441586
1|
#441588
0&!
#441760
1y
#442003
0~
#442344
1%!
#445393
0^
0X
07
#445684
0a
0U
04
#445810
1_
1W
16
#480000
1%
1G
#480596
1x
#483821
0y
#483980
0{
#484326
1$!
#484444
0%!
#484614
0"!
#487905
0_
0W
06
#488273
1`
1V
15
#488523
0b
0T
03
#520000
1$
1F
#520596
1z
#524252
0}
0$!
#524594
1~
#524888
0!!
#528146
0`
0V
05
#528306
1a
1U
14
#530084
0c
0S
02
#560000
1#
1E
#560594
1e
#564127
1h
#564139
0~
#564449
1!!
#564716
1p
#564717
1w
#565033
1&!
#565310
1$!
#567820
0a
0U
04
#568602
1\
1Z
19
#568872
1^
1X
17
#569257
1`
1V
15
#569583
1c
1S
12
#600000
1"
1D
#600596
1j
#604214
0|
#604216
0!!
#604217
1m
#604219
0w
#604539
1%!
#604556
0&!
#604665
1~
#604813
0p
#604815
1'!
#604855
0$!
#608005
1_
1W
16
#608361
0^
0X
07
#608377
1a
1U
14
#608695
1]
1Y
18
#608696
0\
0Z
09
#608749
0`
0V
05
#609412
0c
0S
02
#640000
1!
1C
#640594
1i
#643700
1}
#643975
0m
#644002
0~
#644283
1!!
#644318
0%!
#644616
0'!
#644618
1p
#647683
0a
0U
04
#647779
0_
0W
06
#648463
0]
0Y
08
#648504
1\
1Z
19
#649417
1c
1S
12
#680000
0!
0"
0#
0$
0%
0&
0'
0(
0)
0*
0+
0,
0-
0.
0/
00
0R
0Q
0P
0O
0N
0M
0L
0K
0J
0I
0H
0G
0F
0E
0D
0C
#680759
0i
0e
0n
0g
0u
0o
0l
#680761
0j
0z
0x
0v
0q
0k
0r
0s
0f
#681711
1w
#681779
1|
1&!
#681865
1'!
#681950
1y
#682017
0&!
#682197
1~
#682304
1$!
#682534
1%!
#684148
0}
#684186
0'!
#684187
1{
#684227
0y
#684298
0%!
#684299
0p
#684300
1t
#684355
1p
#684390
0{
#684402
1y
#684424
0|
#684437
1"!
#684481
1&!
#684485
1}
#684599
0h
0"!
#684629
1'!
#684647
0!!
#684649
0y
#684677
0$!
#684680
0}
#684715
0t
#684725
1%!
#684736
1$!
#684779
1"!
1!!
#684850
0%!
#684898
1}
#684905
0"!
#684906
0&!
#684986
1%!
#685012
0~
#685025
1"!
#685074
0'!
#685210
1~
#685243
0p
#685244
0w
#685272
0%!
#685316
0!!
#685373
1&!
#685374
0}
#685377
0"!
#685481
1!!
#685581
0&!
#685618
1^
1X
17
#685706
0~
#685745
1]
1Y
18
#685822
0^
0X
07
#685880
0$!
#685909
1a
1U
14
#686000
1_
1W
16
#686010
0!!
#686251
1`
1V
15
#687759
0_
0W
06
#688033
0]
0Y
08
#688182
0\
0Z
09
#688191
1_
1W
16
#688241
1\
1Z
19
#688311
0_
0W
06
#688320
1^
1X
17
#688350
1b
1T
13
#688452
1_
1W
16
#688508
0b
0T
03
#688509
1]
1Y
18
#688571
0`
0V
05
#688683
1`
1V
15
#688692
1b
1T
13
#688693
0a
0U
04
#688711
0^
0X
07
#688733
0_
0W
06
#688814
0b
0T
03
#688921
0]
0Y
08
#688922
1a
1U
14
#688938
1b
1T
13
#689126
0\
0Z
09
#689212
1^
1X
17
#689286
0b
0T
03
#689386
0^
0X
07
#689387
0a
0U
04
#689774
0`
0V
05
#689843
0c
0S
02
#689913
1c
1S
12
#690512
0c
0S
02
#690615
1c
1S
12
#691206
0c
0S
02
