Projecto/simulation/qsim/CRC16_polynomial_sol.msim.vcd
$comment
	File created using the following command:
		vcd file CRC16_polynomial_sol.msim.vcd -direction
$end
$date
	Tue Nov 21 14:40:17 2017
$end
$version
	ModelSim Version 10.5b
$end
$timescale
	1ps
$end

$scope module crc16_polynomial_sol_vhd_vec_tst $end
$var wire 1 ! a [15] $end
$var wire 1 " a [14] $end
$var wire 1 # a [13] $end
$var wire 1 $ a [12] $end
$var wire 1 % a [11] $end
$var wire 1 & a [10] $end
$var wire 1 ' a [9] $end
$var wire 1 ( a [8] $end
$var wire 1 ) a [7] $end
$var wire 1 * a [6] $end
$var wire 1 + a [5] $end
$var wire 1 , a [4] $end
$var wire 1 - a [3] $end
$var wire 1 . a [2] $end
$var wire 1 / a [1] $end
$var wire 1 0 a [0] $end
$var wire 1 1 error $end
$var wire 1 2 r [7] $end
$var wire 1 3 r [6] $end
$var wire 1 4 r [5] $end
$var wire 1 5 r [4] $end
$var wire 1 6 r [3] $end
$var wire 1 7 r [2] $end
$var wire 1 8 r [1] $end
$var wire 1 9 r [0] $end

$scope module i1 $end
$var wire 1 : gnd $end
$var wire 1 ; vcc $end
$var wire 1 < unknown $end
$var wire 1 = devoe $end
$var wire 1 > devclrn $end
$var wire 1 ? devpor $end
$var wire 1 @ ww_devoe $end
$var wire 1 A ww_devclrn $end
$var wire 1 B ww_devpor $end
$var wire 1 C ww_a [15] $end
$var wire 1 D ww_a [14] $end
$var wire 1 E ww_a [13] $end
$var wire 1 F ww_a [12] $end
$var wire 1 G ww_a [11] $end
$var wire 1 H ww_a [10] $end
$var wire 1 I ww_a [9] $end
$var wire 1 J ww_a [8] $end
$var wire 1 K ww_a [7] $end
$var wire 1 L ww_a [6] $end
$var wire 1 M ww_a [5] $end
$var wire 1 N ww_a [4] $end
$var wire 1 O ww_a [3] $end
$var wire 1 P ww_a [2] $end
$var wire 1 Q ww_a [1] $end
$var wire 1 R ww_a [0] $end
$var wire 1 S ww_r [7] $end
$var wire 1 T ww_r [6] $end
$var wire 1 U ww_r [5] $end
$var wire 1 V ww_r [4] $end
$var wire 1 W ww_r [3] $end
$var wire 1 X ww_r [2] $end
$var wire 1 Y ww_r [1] $end
$var wire 1 Z ww_r [0] $end
$var wire 1 [ ww_error $end
$var wire 1 \ \r[0]~output_o\ $end
$var wire 1 ] \r[1]~output_o\ $end
$var wire 1 ^ \r[2]~output_o\ $end
$var wire 1 _ \r[3]~output_o\ $end
$var wire 1 ` \r[4]~output_o\ $end
$var wire 1 a \r[5]~output_o\ $end
$var wire 1 b \r[6]~output_o\ $end
$var wire 1 c \r[7]~output_o\ $end
$var wire 1 d \error~output_o\ $end
$var wire 1 e \a[13]~input_o\ $end
$var wire 1 f \a[6]~input_o\ $end
$var wire 1 g \a[0]~input_o\ $end
$var wire 1 h \encoder|r[7]~1_combout\ $end
$var wire 1 i \a[1]~input_o\ $end
$var wire 1 j \a[14]~input_o\ $end
$var wire 1 k \a[15]~input_o\ $end
$var wire 1 l \a[8]~input_o\ $end
$var wire 1 m \encoder|r[0]~0_combout\ $end
$var wire 1 n \a[3]~input_o\ $end
$var wire 1 o \a[7]~input_o\ $end
$var wire 1 p \encoder|r[0]~2_combout\ $end
$var wire 1 q \a[4]~input_o\ $end
$var wire 1 r \a[2]~input_o\ $end
$var wire 1 s \encoder|r[5]~3_combout\ $end
$var wire 1 t \encoder|s_X_16_23~combout\ $end
$var wire 1 u \a[9]~input_o\ $end
$var wire 1 v \a[5]~input_o\ $end
$var wire 1 w \encoder|r[2]~4_combout\ $end
$var wire 1 x \a[10]~input_o\ $end
$var wire 1 y \encoder|r[2]~5_combout\ $end
$var wire 1 z \a[11]~input_o\ $end
$var wire 1 { \encoder|r[3]~6_combout\ $end
$var wire 1 | \encoder|r[4]~7_combout\ $end
$var wire 1 } \a[12]~input_o\ $end
$var wire 1 ~ \encoder|r[4]~8_combout\ $end
$var wire 1 !! \encoder|r[5]~9_combout\ $end
$var wire 1 "! \encoder|r[5]~10_combout\ $end
$var wire 1 #! \encoder|r[6]~11_combout\ $end
$var wire 1 $! \encoder|r[7]~12_combout\ $end
$var wire 1 %! \encoder|r[7]~13_combout\ $end
$var wire 1 &! \encoder|r\ [7] $end
$var wire 1 '! \encoder|r\ [6] $end
$var wire 1 (! \encoder|r\ [5] $end
$var wire 1 )! \encoder|r\ [4] $end
$var wire 1 *! \encoder|r\ [3] $end
$var wire 1 +! \encoder|r\ [2] $end
$var wire 1 ,! \encoder|r\ [1] $end
$var wire 1 -! \encoder|r\ [0] $end
$upscope $end
$upscope $end
$enddefinitions $end
#0
$dumpvars
01
0:
1;
x<
1=
1>
1?
1@
1A
1B
0[
0\
0]
0^
0_
0`
0a
0b
0c
0d
0e
0f
0g
0h
0i
0j
0k
0l
0m
0n
0o
0p
0q
0r
0s
0t
0u
0v
0w
0x
0y
0z
0{
0|
0}
0~
0!!
0"!
0#!
0$!
0%!
0!
0"
0#
0$
0%
0&
0'
0(
0)
0*
0+
0,
0-
0.
0/
00
02
03
04
05
06
07
08
09
0C
0D
0E
0F
0G
0H
0I
0J
0K
0L
0M
0N
0O
0P
0Q
0R
0S
0T
0U
0V
0W
0X
0Y
0Z
x&!
0'!
x(!
x)!
0*!
x+!
0,!
x-!
$end
#40000
10
1R
1g
1h
1w
1'!
1y
1~
1p
1%!
1b
1T
1c
1\
1`
1^
13
1S
1Z
1V
1X
19
17
15
12
#80000
1/
1Q
1i
1m
1s
1|
0'!
0~
1,!
0y
1*!
1"!
0p
0b
0T
0\
1a
1_
0^
1]
0`
03
0Z
1U
1W
0X
1Y
0V
09
18
07
16
05
14
#120000
1.
1P
1r
0s
1~
1#!
0%!
1'!
0,!
1y
0*!
0"!
0c
1`
0S
1V
0a
0_
1^
0]
1b
15
02
0U
0W
1X
0Y
1T
08
17
06
04
13
#160000
1-
1O
1n
1p
1{
1"!
1*!
1a
1\
1U
1Z
1_
19
14
1W
16
#200000
1,
1N
1q
1,!
0|
0#!
0'!
0~
1]
1Y
0`
0b
18
0V
0T
05
03
#240000
1+
1M
1v
0y
1!!
1$!
1%!
0"!
0^
0X
0a
1c
07
0U
1S
04
12
#280000
1*
1L
1f
0h
0w
0{
0*!
1y
1~
0p
0%!
0c
0\
1`
1^
0_
0S
0Z
1V
1X
0W
09
17
06
15
02
#320000
1)
1K
1o
1p
1s
1#!
1%!
1'!
0,!
0y
1*!
1"!
1c
1\
1S
1Z
1a
1_
0^
0]
1b
19
12
1U
1W
0X
0Y
1T
08
07
16
14
13
#360000
1(
1J
1l
0m
1t
0*!
1,!
0p
0_
0W
0\
1]
06
0Z
1Y
09
18
#400000
1'
1I
1u
0,!
1w
1y
0~
0]
0Y
0`
1^
08
0V
1X
17
05
#440000
1&
1H
1x
0y
1{
0"!
1*!
0a
0^
0U
0X
1_
07
04
1W
16
#480000
1%
1G
1z
0{
1|
0#!
0'!
1~
0*!
0_
1`
0b
0W
1V
0T
06
15
03
#520000
1$
1F
1}
0~
0!!
0$!
0%!
1"!
0`
0V
1a
0c
05
1U
0S
14
02
#560000
1#
1E
1e
1h
0w
1!!
0"!
1y
1~
1p
1%!
1c
1\
1`
1^
0a
1S
1Z
1V
1X
0U
19
17
15
04
12
#600000
1"
1D
1j
1m
0s
0|
1$!
0%!
0~
1,!
0y
1*!
1"!
0p
0\
1a
1_
0^
1]
0`
0c
0Z
1U
1W
0X
1Y
0V
0S
09
18
07
16
05
14
02
#640000
1!
1C
1k
0m
0t
0*!
0!!
0$!
1%!
0"!
0,!
1p
0_
0W
1\
0]
0a
1c
06
1Z
0Y
0U
1S
19
08
04
12
#680000
0!
0"
0#
0$
0%
0&
0'
0(
0)
0*
0+
0,
0-
0.
0/
00
0R
0Q
0P
0O
0N
0M
0L
0K
0J
0I
0H
0G
0F
0E
0D
0C
0k
0j
0e
0}
0z
0x
0u
0l
0o
0f
0v
0q
0n
0r
0i
0g
0h
0p
0%!
0c
0\
0S
0Z
09
02
