Projecto/simulation/qsim/CRC16_polynomial_sol.msim.vcd
$comment
	File created using the following command:
		vcd file CRC16_polynomial_sol.msim.vcd -direction
$end
$date
	Tue Nov 28 13:04:59 2017
$end
$version
	ModelSim Version 10.5b
$end
$timescale
	1ps
$end

$scope module crc16_polynomial_sol_vhd_vec_tst $end
$var wire 1 ! a [15] $end
$var wire 1 " a [14] $end
$var wire 1 # a [13] $end
$var wire 1 $ a [12] $end
$var wire 1 % a [11] $end
$var wire 1 & a [10] $end
$var wire 1 ' a [9] $end
$var wire 1 ( a [8] $end
$var wire 1 ) a [7] $end
$var wire 1 * a [6] $end
$var wire 1 + a [5] $end
$var wire 1 , a [4] $end
$var wire 1 - a [3] $end
$var wire 1 . a [2] $end
$var wire 1 / a [1] $end
$var wire 1 0 a [0] $end
$var wire 1 1 error_checker1 $end
$var wire 1 2 error_checker2 $end
$var wire 1 3 r [7] $end
$var wire 1 4 r [6] $end
$var wire 1 5 r [5] $end
$var wire 1 6 r [4] $end
$var wire 1 7 r [3] $end
$var wire 1 8 r [2] $end
$var wire 1 9 r [1] $end
$var wire 1 : r [0] $end

$scope module i1 $end
$var wire 1 ; gnd $end
$var wire 1 < vcc $end
$var wire 1 = unknown $end
$var wire 1 > devoe $end
$var wire 1 ? devclrn $end
$var wire 1 @ devpor $end
$var wire 1 A ww_devoe $end
$var wire 1 B ww_devclrn $end
$var wire 1 C ww_devpor $end
$var wire 1 D ww_a [15] $end
$var wire 1 E ww_a [14] $end
$var wire 1 F ww_a [13] $end
$var wire 1 G ww_a [12] $end
$var wire 1 H ww_a [11] $end
$var wire 1 I ww_a [10] $end
$var wire 1 J ww_a [9] $end
$var wire 1 K ww_a [8] $end
$var wire 1 L ww_a [7] $end
$var wire 1 M ww_a [6] $end
$var wire 1 N ww_a [5] $end
$var wire 1 O ww_a [4] $end
$var wire 1 P ww_a [3] $end
$var wire 1 Q ww_a [2] $end
$var wire 1 R ww_a [1] $end
$var wire 1 S ww_a [0] $end
$var wire 1 T ww_r [7] $end
$var wire 1 U ww_r [6] $end
$var wire 1 V ww_r [5] $end
$var wire 1 W ww_r [4] $end
$var wire 1 X ww_r [3] $end
$var wire 1 Y ww_r [2] $end
$var wire 1 Z ww_r [1] $end
$var wire 1 [ ww_r [0] $end
$var wire 1 \ ww_error_checker1 $end
$var wire 1 ] ww_error_checker2 $end
$var wire 1 ^ \r[0]~output_o\ $end
$var wire 1 _ \r[1]~output_o\ $end
$var wire 1 ` \r[2]~output_o\ $end
$var wire 1 a \r[3]~output_o\ $end
$var wire 1 b \r[4]~output_o\ $end
$var wire 1 c \r[5]~output_o\ $end
$var wire 1 d \r[6]~output_o\ $end
$var wire 1 e \r[7]~output_o\ $end
$var wire 1 f \error_checker1~output_o\ $end
$var wire 1 g \error_checker2~output_o\ $end
$var wire 1 h \a[6]~input_o\ $end
$var wire 1 i \a[8]~input_o\ $end
$var wire 1 j \a[15]~input_o\ $end
$var wire 1 k \a[3]~input_o\ $end
$var wire 1 l \encoder|r[0]~0_combout\ $end
$var wire 1 m \a[14]~input_o\ $end
$var wire 1 n \a[0]~input_o\ $end
$var wire 1 o \a[13]~input_o\ $end
$var wire 1 p \a[1]~input_o\ $end
$var wire 1 q \encoder|s_X_8_21_X_9_22~combout\ $end
$var wire 1 r \a[7]~input_o\ $end
$var wire 1 s \encoder|r[0]~1_combout\ $end
$var wire 1 t \a[4]~input_o\ $end
$var wire 1 u \a[9]~input_o\ $end
$var wire 1 v \a[2]~input_o\ $end
$var wire 1 w \encoder|s_X_10_15_X_9_22~combout\ $end
$var wire 1 x \encoder|s_X_16_23_X_10_15_X_9_22~combout\ $end
$var wire 1 y \encoder|r[2]~2_combout\ $end
$var wire 1 z \a[5]~input_o\ $end
$var wire 1 { \a[10]~input_o\ $end
$var wire 1 | \encoder|r[2]~3_combout\ $end
$var wire 1 } \a[11]~input_o\ $end
$var wire 1 ~ \encoder|s_X_11_18~combout\ $end
$var wire 1 !! \a[12]~input_o\ $end
$var wire 1 "! \encoder|r[4]~4_combout\ $end
$var wire 1 #! \encoder|r[4]~5_combout\ $end
$var wire 1 $! \encoder|r[7]~6_combout\ $end
$var wire 1 %! \encoder|r[5]~7_combout\ $end
$var wire 1 &! \encoder|r[6]~8_combout\ $end
$var wire 1 '! \encoder|r[7]~9_combout\ $end
$var wire 1 (! \encoder|r[7]~10_combout\ $end
$var wire 1 )! \encoder|r\ [7] $end
$var wire 1 *! \encoder|r\ [6] $end
$var wire 1 +! \encoder|r\ [5] $end
$var wire 1 ,! \encoder|r\ [4] $end
$var wire 1 -! \encoder|r\ [3] $end
$var wire 1 .! \encoder|r\ [2] $end
$var wire 1 /! \encoder|r\ [1] $end
$var wire 1 0! \encoder|r\ [0] $end
$upscope $end
$upscope $end
$enddefinitions $end
#0
$dumpvars
01
12
0;
1<
x=
1>
1?
1@
1A
1B
1C
0\
1]
0^
0_
0`
0a
0b
0c
0d
0e
0f
1g
0h
0i
0j
0k
0l
0m
0n
0o
0p
0q
0r
0s
0t
0u
0v
0w
0x
0y
0z
0{
0|
0}
0~
0!!
0"!
0#!
0$!
0%!
0&!
0'!
0(!
0!
0"
0#
0$
0%
0&
0'
0(
0)
0*
0+
0,
0-
0.
0/
00
0D
0E
0F
0G
0H
0I
0J
0K
0L
0M
0N
0O
0P
0Q
0R
0S
0T
0U
0V
0W
0X
0Y
0Z
0[
x)!
0*!
x+!
x,!
0-!
x.!
0/!
x0!
03
04
05
06
07
08
09
0:
$end
#40000
10
1S
1n
1q
1y
1*!
1'!
1(!
1|
1s
1#!
1d
1U
1b
1^
1`
1e
14
1W
1[
1Y
1T
1:
18
16
13
#80000
1/
1R
1p
0q
1w
0*!
1x
0|
1%!
0s
0#!
1/!
1-!
0d
0U
0b
0^
1c
0`
04
0W
0[
1V
0Y
1a
1_
0:
08
06
15
1X
1Z
19
17
#120000
1.
1Q
1v
0w
1#!
1&!
0'!
0(!
1*!
0x
1|
0%!
0/!
0-!
1b
1W
0c
1`
1d
0e
16
0V
1Y
1U
0T
0a
0_
18
05
14
03
0X
0Z
09
07
#160000
1-
1P
1k
1l
1~
1-!
1%!
1s
1^
1c
1a
1[
1V
1X
1:
17
15
#200000
1,
1O
1t
1/!
1"!
0&!
0*!
0#!
1_
1Z
0b
0d
19
0W
0U
06
04
#240000
1+
1N
1z
0|
1$!
0%!
1(!
0`
0Y
1e
0c
08
1T
0V
05
13
#280000
1*
1M
1h
0l
0y
0-!
0"!
0(!
1#!
1|
0s
0e
0a
0T
0X
0^
1`
1b
07
03
0[
1Y
1W
0:
18
16
#320000
1)
1L
1r
1s
1w
1&!
1'!
1(!
1*!
1x
0|
1%!
0/!
1-!
1^
1[
1c
0`
1d
1e
1:
1V
0Y
1U
1T
1a
0_
08
15
14
13
1X
0Z
09
17
#360000
1(
1K
1i
1l
0x
1/!
0-!
0s
0^
0a
1_
0[
0X
1Z
0:
19
07
#400000
1'
1J
1u
0/!
1y
1"!
0#!
1|
0_
0Z
1`
0b
09
1Y
0W
18
06
#440000
1&
1I
1{
0|
0~
1-!
0%!
0`
0Y
0c
1a
08
0V
1X
17
05
#480000
1%
1H
1}
0-!
0"!
0&!
0*!
1#!
0a
0X
1b
0d
07
1W
0U
16
04
#520000
1$
1G
1!!
0#!
0$!
1%!
0(!
0b
0W
0e
1c
06
0T
1V
15
03
#560000
1#
1F
1o
1q
0y
0%!
0'!
1(!
1|
1s
1#!
0c
0V
1b
1^
1`
1e
05
1W
1[
1Y
1T
1:
18
16
13
#600000
1"
1E
1m
0q
0w
0(!
1x
0|
1%!
0s
0#!
1/!
1-!
0e
0T
0b
0^
1c
0`
03
0W
0[
1V
0Y
1a
1_
0:
08
06
15
1X
1Z
19
17
#640000
1!
1D
1j
0l
0x
1$!
0%!
1(!
0/!
0-!
1s
1^
0a
0_
1e
0c
1[
0X
0Z
1T
0V
1:
09
07
05
13
#680000
0!
0"
0#
0$
0%
0&
0'
0(
0)
0*
0+
0,
0-
0.
0/
00
0S
0R
0Q
0P
0O
0N
0M
0L
0K
0J
0I
0H
0G
0F
0E
0D
0j
0m
0o
0!!
0}
0{
0u
0i
0r
0h
0z
0t
0k
0v
0p
0n
0s
1%!
0$!
0%!
0(!
1c
0^
1V
0[
0e
0c
0:
15
0T
0V
05
03
